Reference, Quantity, Value, Footprint, Datasheet, CatNo
C1 C2 C3 ,3,"0.1uF","Capacitor_THT:C_Disc_D5.0mm_W2.5mm_P5.00mm","~","399-9877-1-ND"
D1 D2 ,2,"LED","LED_THT:LED_D3.0mm","~","350-2697-ND"
H1 H2 H3 H4 ,4,"Hole","MountingHole:MountingHole_4.3mm_M4","~"
J1 ,1,"TipJack-red","tip-jack:tip-jack-105-0803-b","~","J106-ND"
J2 ,1,"Barrel_Jack","barrel_jack:Wuerth_2.5x5.5_TH_694108402002","~","732-5935-ND"
J3 ,1,"Conn_Coaxial","bnc:WM5517-ND"," ~","WM5517-ND"
J4 ,1,"TipJack-black","tip-jack:tip-jack-105-0803-b","~","J118-ND"
JP1 ,1,"Jumper_NC_Dual","Connector_PinHeader_2.54mm:PinHeader_1x03_P2.54mm_Vertical","~","2057-PH1-03-UA-ND"
N1 ,1,"Hammond 1591DSBK","","~","HM105-ND"
N2 ,1,"DC/DC ME10A0503F01","","~","271-2861-ND"
R1 ,1,"3.9k","Resistor_THT:R_Axial_DIN0204_L3.6mm_D1.6mm_P7.62mm_Horizontal","~","S3.9KCACT-ND"
R2 R6 ,2,"2.7k","Resistor_THT:R_Axial_DIN0204_L3.6mm_D1.6mm_P7.62mm_Horizontal","~","S2.7KCACT-ND"
R3 ,1,"3.6k","Resistor_THT:R_Axial_DIN0204_L3.6mm_D1.6mm_P7.62mm_Horizontal","~","S3.6KCACT-ND"
R4 ,1,"47","Resistor_THT:R_Axial_DIN0204_L3.6mm_D1.6mm_P7.62mm_Horizontal","~","S47CACT-ND"
R5 ,1,"270","Resistor_THT:R_Axial_DIN0204_L3.6mm_D1.6mm_P7.62mm_Horizontal","~","S270CACT-ND"
SW1 ,1,"SW_SPST","switch:ANT11SF1CQE","~","2449-ANT11SF1CQE-ND"
U1 ,1,"74HCT14","Package_DIP:DIP-14_W7.62mm_LongPads","http://www.ti.com/lit/gpn/sn74HC14","296-8394-5-ND"
U2 ,1,"TL071","Package_DIP:DIP-8_W7.62mm_LongPads","http://www.ti.com/lit/ds/symlink/tl071.pdf","296-7185-5-ND"
U3 ,1,"DD03D0512A","Package_DIP:DIP-24_W15.24mm_LongPads","https://www.artesyn.com/power/assets/ata_series_ds_01apr2015_79c25814fd.pdf","941-1453-ND"
U4 ,1,"LTV-815","Package_DIP:DIP-4_W7.62mm","http://www.vishay.com/docs/83740/sfh617a.pdf","160-1358-5-ND"