EESchema Schematic File Version 4
EELAYER 30 0
EELAYER END
$Descr A 11000 8500
encoding utf-8
Sheet 1 1
Title ""
Date ""
Rev ""
Comp ""
Comment1 ""
Comment2 ""
Comment3 ""
Comment4 ""
$EndDescr
$Comp
L Connector:Barrel_Jack J2
U 1 1 6335A5EA
P 1650 1650
F 0 "J2" H 1707 2065 50  0000 C CNN
F 1 "Barrel_Jack" H 1707 1974 50  0000 C CNN
F 2 "barrel_jack:Wuerth_2.5x5.5_TH_694108402002" H 1700 1610 50  0001 C CNN
F 3 "~" H 1700 1610 50  0001 C CNN
F 4 "732-5935-ND" H 1707 1883 50  0000 C CNN "CatNo"
	1    1650 1650
	1    0    0    -1  
$EndComp
$Comp
L Switch:SW_SPST SW1
U 1 1 6335C2F8
P 2600 1550
F 0 "SW1" H 2600 1785 50  0000 C CNN
F 1 "SW_SPST" H 2600 1694 50  0000 C CNN
F 2 "switch:ANT11SF1CQE" H 2600 1550 50  0001 C CNN
F 3 "~" H 2600 1550 50  0001 C CNN
F 4 "2449-ANT11SF1CQE-ND" H 2550 1450 50  0000 C CNN "CatNo"
	1    2600 1550
	1    0    0    -1  
$EndComp
Wire Wire Line
	1950 1550 2400 1550
Wire Wire Line
	3000 1750 3000 1950
$Comp
L power:Earth #PWR012
U 1 1 6335CC53
P 3000 1950
F 0 "#PWR012" H 3000 1700 50  0001 C CNN
F 1 "Earth" H 3000 1800 50  0001 C CNN
F 2 "" H 3000 1950 50  0001 C CNN
F 3 "~" H 3000 1950 50  0001 C CNN
	1    3000 1950
	1    0    0    -1  
$EndComp
$Comp
L opto-symbols:DD03D0512A U3
U 1 1 63360879
P 3850 1650
F 0 "U3" H 3500 2250 50  0000 C CNN
F 1 "DD03D0512A" H 3700 2150 50  0000 C CNN
F 2 "Package_DIP:DIP-24_W15.24mm_LongPads" H 3850 1300 50  0001 C CIN
F 3 "https://www.artesyn.com/power/assets/ata_series_ds_01apr2015_79c25814fd.pdf" H 3850 1200 50  0001 C CNN
F 4 "941-1453-ND" H 3750 2050 50  0000 C CNN "CatNo"
	1    3850 1650
	1    0    0    -1  
$EndComp
Wire Wire Line
	2800 1550 3000 1550
Wire Wire Line
	3250 1550 3250 1450
Wire Wire Line
	3250 1450 3350 1450
Connection ~ 3250 1550
Wire Wire Line
	3250 1550 3350 1550
Wire Wire Line
	3250 1750 3250 1850
Wire Wire Line
	3250 1850 3350 1850
Connection ~ 3250 1750
Wire Wire Line
	3250 1750 3350 1750
Wire Wire Line
	4350 1750 4550 1750
Wire Wire Line
	4350 2050 4550 2050
Wire Wire Line
	4350 1950 4550 1950
Wire Wire Line
	4550 1750 4550 1850
Connection ~ 4550 1950
Wire Wire Line
	4550 1950 4550 2050
Wire Wire Line
	4350 1850 4550 1850
Connection ~ 4550 1850
Wire Wire Line
	4550 1850 4550 1950
$Comp
L power:GND #PWR014
U 1 1 63363B7D
P 4550 2050
F 0 "#PWR014" H 4550 1800 50  0001 C CNN
F 1 "GND" H 4700 2050 50  0000 C CNN
F 2 "" H 4550 2050 50  0001 C CNN
F 3 "" H 4550 2050 50  0001 C CNN
	1    4550 2050
	1    0    0    -1  
$EndComp
Connection ~ 4550 2050
Wire Wire Line
	4350 1550 4350 1450
Wire Wire Line
	4350 1450 5000 1450
Connection ~ 4350 1450
Wire Wire Line
	4350 2250 4350 2350
Wire Wire Line
	4350 2350 5000 2350
Connection ~ 4350 2350
$Comp
L power:+12V #PWR015
U 1 1 63364A89
P 5000 1450
F 0 "#PWR015" H 5000 1300 50  0001 C CNN
F 1 "+12V" H 5015 1623 50  0000 C CNN
F 2 "" H 5000 1450 50  0001 C CNN
F 3 "" H 5000 1450 50  0001 C CNN
	1    5000 1450
	1    0    0    -1  
$EndComp
$Comp
L power:-12V #PWR016
U 1 1 63365047
P 5000 2350
F 0 "#PWR016" H 5000 2450 50  0001 C CNN
F 1 "-12V" H 5015 2523 50  0000 C CNN
F 2 "" H 5000 2350 50  0001 C CNN
F 3 "" H 5000 2350 50  0001 C CNN
	1    5000 2350
	1    0    0    -1  
$EndComp
$Comp
L power:+5V #PWR011
U 1 1 63365338
P 3000 1550
F 0 "#PWR011" H 3000 1400 50  0001 C CNN
F 1 "+5V" H 3015 1723 50  0000 C CNN
F 2 "" H 3000 1550 50  0001 C CNN
F 3 "" H 3000 1550 50  0001 C CNN
	1    3000 1550
	1    0    0    -1  
$EndComp
Connection ~ 3000 1550
Wire Wire Line
	3000 1550 3250 1550
Connection ~ 3000 1750
Wire Wire Line
	3000 1750 3250 1750
Wire Wire Line
	1950 1750 3000 1750
$Comp
L Device:LED D1
U 1 1 63366190
P 2200 2550
F 0 "D1" V 2200 2400 50  0000 R CNN
F 1 "LED" V 2100 2400 50  0000 R CNN
F 2 "LED_THT:LED_D3.0mm" H 2200 2550 50  0001 C CNN
F 3 "~" H 2200 2550 50  0001 C CNN
F 4 "350-2697-ND" V 2000 2400 50  0000 R CNN "CatNo"
	1    2200 2550
	0    -1   -1   0   
$EndComp
$Comp
L Device:R_US R2
U 1 1 63366FA8
P 2200 2250
F 0 "R2" H 2268 2296 50  0000 L CNN
F 1 "2.7k" H 2268 2205 50  0000 L CNN
F 2 "Resistor_THT:R_Axial_DIN0204_L3.6mm_D1.6mm_P7.62mm_Horizontal" V 2240 2240 50  0001 C CNN
F 3 "~" H 2200 2250 50  0001 C CNN
F 4 "S2.7KCACT-ND" H 2550 2100 50  0000 C CNN "CatNo"
	1    2200 2250
	1    0    0    -1  
$EndComp
$Comp
L power:+5V #PWR04
U 1 1 633675B0
P 2200 2100
F 0 "#PWR04" H 2200 1950 50  0001 C CNN
F 1 "+5V" H 2215 2273 50  0000 C CNN
F 2 "" H 2200 2100 50  0001 C CNN
F 3 "" H 2200 2100 50  0001 C CNN
	1    2200 2100
	1    0    0    -1  
$EndComp
$Comp
L power:Earth #PWR05
U 1 1 633679C9
P 2200 2700
F 0 "#PWR05" H 2200 2450 50  0001 C CNN
F 1 "Earth" H 2200 2550 50  0001 C CNN
F 2 "" H 2200 2700 50  0001 C CNN
F 3 "~" H 2200 2700 50  0001 C CNN
	1    2200 2700
	1    0    0    -1  
$EndComp
$Comp
L Isolator:SFH617A-1 U4
U 1 1 6336995B
P 4650 4050
F 0 "U4" H 4650 4465 50  0000 C CNN
F 1 "LTV-815" H 4650 4374 50  0000 C CNN
F 2 "Package_DIP:DIP-4_W7.62mm" H 4450 3850 50  0001 L CIN
F 3 "http://www.vishay.com/docs/83740/sfh617a.pdf" H 4650 4050 50  0001 L CNN
F 4 "160-1358-5-ND" H 4650 4283 50  0000 C CNN "CatNo"
	1    4650 4050
	1    0    0    -1  
$EndComp
$Comp
L Amplifier_Operational:TL071 U2
U 1 1 6336A613
P 2600 4150
F 0 "U2" H 2850 4000 50  0000 L CNN
F 1 "TL071" H 2850 3900 50  0000 L CNN
F 2 "Package_DIP:DIP-8_W7.62mm_LongPads" H 2650 4200 50  0001 C CNN
F 3 "http://www.ti.com/lit/ds/symlink/tl071.pdf" H 2750 4300 50  0001 C CNN
F 4 "296-7185-5-ND" H 3050 3800 50  0000 C CNN "CatNo"
	1    2600 4150
	1    0    0    -1  
$EndComp
$Comp
L power:-12V #PWR06
U 1 1 6336C3C1
P 2300 4700
F 0 "#PWR06" H 2300 4800 50  0001 C CNN
F 1 "-12V" H 2315 4873 50  0000 C CNN
F 2 "" H 2300 4700 50  0001 C CNN
F 3 "" H 2300 4700 50  0001 C CNN
	1    2300 4700
	1    0    0    -1  
$EndComp
Wire Wire Line
	2300 4700 2500 4700
Wire Wire Line
	2500 4700 2500 4450
$Comp
L power:+12V #PWR08
U 1 1 6336CE0C
P 2500 3700
F 0 "#PWR08" H 2500 3550 50  0001 C CNN
F 1 "+12V" H 2515 3873 50  0000 C CNN
F 2 "" H 2500 3700 50  0001 C CNN
F 3 "" H 2500 3700 50  0001 C CNN
	1    2500 3700
	1    0    0    -1  
$EndComp
Wire Wire Line
	2500 3850 2500 3700
$Comp
L Device:C_Small C2
U 1 1 6336E653
P 2750 3800
F 0 "C2" H 2900 3900 50  0000 L CNN
F 1 "0.1uF" H 2900 3800 50  0000 L CNN
F 2 "Capacitor_THT:C_Disc_D5.0mm_W2.5mm_P5.00mm" H 2750 3800 50  0001 C CNN
F 3 "~" H 2750 3800 50  0001 C CNN
F 4 "399-9877-1-ND" H 3250 3700 50  0000 C CNN "CatNo"
	1    2750 3800
	1    0    0    -1  
$EndComp
Wire Wire Line
	2500 3700 2750 3700
Connection ~ 2500 3700
$Comp
L Device:C_Small C3
U 1 1 6336F0C6
P 2750 4800
F 0 "C3" H 2842 4846 50  0000 L CNN
F 1 "0.1uF" H 2842 4755 50  0000 L CNN
F 2 "Capacitor_THT:C_Disc_D5.0mm_W2.5mm_P5.00mm" H 2750 4800 50  0001 C CNN
F 3 "~" H 2750 4800 50  0001 C CNN
F 4 "399-9877-1-ND" H 3200 4650 50  0000 C CNN "CatNo"
	1    2750 4800
	1    0    0    -1  
$EndComp
Wire Wire Line
	2500 4700 2750 4700
Connection ~ 2500 4700
$Comp
L power:GND #PWR010
U 1 1 6336FB0E
P 2750 4900
F 0 "#PWR010" H 2750 4650 50  0001 C CNN
F 1 "GND" H 2750 4750 50  0000 C CNN
F 2 "" H 2750 4900 50  0001 C CNN
F 3 "" H 2750 4900 50  0001 C CNN
	1    2750 4900
	1    0    0    -1  
$EndComp
$Comp
L power:GND #PWR09
U 1 1 6337017C
P 2750 3900
F 0 "#PWR09" H 2750 3650 50  0001 C CNN
F 1 "GND" H 2900 3800 50  0000 C CNN
F 2 "" H 2750 3900 50  0001 C CNN
F 3 "" H 2750 3900 50  0001 C CNN
	1    2750 3900
	1    0    0    -1  
$EndComp
Wire Wire Line
	2900 4150 3450 4150
$Comp
L Device:R_US R3
U 1 1 63371E64
P 3000 5300
F 0 "R3" V 2795 5300 50  0000 C CNN
F 1 "3.6k" V 2886 5300 50  0000 C CNN
F 2 "Resistor_THT:R_Axial_DIN0204_L3.6mm_D1.6mm_P7.62mm_Horizontal" V 3040 5290 50  0001 C CNN
F 3 "~" H 3000 5300 50  0001 C CNN
F 4 "S3.6KCACT-ND" V 3100 5350 50  0000 C CNN "CatNo"
	1    3000 5300
	0    1    1    0   
$EndComp
Wire Wire Line
	3150 5300 3450 5300
Wire Wire Line
	3450 5300 3450 4150
Wire Wire Line
	2850 5300 2050 5300
Wire Wire Line
	2050 5300 2050 4250
Wire Wire Line
	2050 4250 2300 4250
$Comp
L Device:R_US R4
U 1 1 633750C7
P 3900 4150
F 0 "R4" V 3695 4150 50  0000 C CNN
F 1 "47" V 3786 4150 50  0000 C CNN
F 2 "Resistor_THT:R_Axial_DIN0204_L3.6mm_D1.6mm_P7.62mm_Horizontal" V 3940 4140 50  0001 C CNN
F 3 "~" H 3900 4150 50  0001 C CNN
F 4 "S47CACT-ND" V 4000 4200 50  0000 C CNN "CatNo"
	1    3900 4150
	0    1    1    0   
$EndComp
Wire Wire Line
	3750 4150 3450 4150
Connection ~ 3450 4150
Wire Wire Line
	4050 4150 4350 4150
Wire Wire Line
	4350 3950 4200 3950
Wire Wire Line
	4200 3950 4200 3700
Wire Wire Line
	4200 3700 4100 3700
$Comp
L power:GND #PWR013
U 1 1 63377191
P 4100 3700
F 0 "#PWR013" H 4100 3450 50  0001 C CNN
F 1 "GND" H 4100 3550 50  0000 C CNN
F 2 "" H 4100 3700 50  0001 C CNN
F 3 "" H 4100 3700 50  0001 C CNN
	1    4100 3700
	1    0    0    -1  
$EndComp
Wire Wire Line
	2050 4250 1750 4250
Connection ~ 2050 4250
$Comp
L power:GND #PWR01
U 1 1 6337C349
P 1600 4450
F 0 "#PWR01" H 1600 4200 50  0001 C CNN
F 1 "GND" H 1600 4300 50  0000 C CNN
F 2 "" H 1600 4450 50  0001 C CNN
F 3 "" H 1600 4450 50  0001 C CNN
	1    1600 4450
	1    0    0    -1  
$EndComp
Wire Wire Line
	1450 4050 1600 4050
Connection ~ 1600 4050
Wire Wire Line
	1600 4050 2050 4050
$Comp
L Device:R_US R1
U 1 1 6337DC3A
P 1900 4150
F 0 "R1" V 1650 4000 50  0000 C CNN
F 1 "3.9k" V 1650 4250 50  0000 C CNN
F 2 "Resistor_THT:R_Axial_DIN0204_L3.6mm_D1.6mm_P7.62mm_Horizontal" V 1940 4140 50  0001 C CNN
F 3 "~" H 1900 4150 50  0001 C CNN
F 4 "S3.9KCACT-ND" V 1750 4250 50  0000 C CNN "CatNo"
	1    1900 4150
	0    1    1    0   
$EndComp
Wire Wire Line
	1750 4150 1750 4250
Connection ~ 1750 4250
Wire Wire Line
	1750 4250 1450 4250
Wire Wire Line
	2050 4150 2050 4050
Connection ~ 2050 4050
Wire Wire Line
	2050 4050 2300 4050
Text Notes 750  3850 0    50   ~ 0
Input - tip jack\nfor 2mm pins\n(red, black)
$Comp
L 74xx:74HC14 U1
U 1 1 633810B4
P 5900 3950
F 0 "U1" H 5900 4357 50  0000 C CNN
F 1 "74HCT14" H 5900 4266 50  0000 C CNN
F 2 "Package_DIP:DIP-14_W7.62mm_LongPads" H 5900 3950 50  0001 C CNN
F 3 "http://www.ti.com/lit/gpn/sn74HC14" H 5900 3950 50  0001 C CNN
F 4 "296-8394-5-ND" H 5800 3750 50  0000 C CNN "CatNo"
	1    5900 3950
	1    0    0    -1  
$EndComp
$Comp
L 74xx:74HC14 U1
U 2 1 63382232
P 6850 3950
F 0 "U1" H 6850 4267 50  0000 C CNN
F 1 "74HCT14" H 6850 4176 50  0000 C CNN
F 2 "Package_DIP:DIP-14_W7.62mm_LongPads" H 6850 3950 50  0001 C CNN
F 3 "http://www.ti.com/lit/gpn/sn74HC14" H 6850 3950 50  0001 C CNN
F 4 "296-8394-5-ND" H 6850 3950 50  0001 C CNN "CatNo"
	2    6850 3950
	1    0    0    -1  
$EndComp
$Comp
L 74xx:74HC14 U1
U 3 1 63383DE6
P 6850 4650
F 0 "U1" H 6850 4967 50  0000 C CNN
F 1 "74HCT14" H 6850 4876 50  0000 C CNN
F 2 "Package_DIP:DIP-14_W7.62mm_LongPads" H 6850 4650 50  0001 C CNN
F 3 "http://www.ti.com/lit/gpn/sn74HC14" H 6850 4650 50  0001 C CNN
F 4 "296-8394-5-ND" H 6850 4650 50  0001 C CNN "CatNo"
	3    6850 4650
	1    0    0    -1  
$EndComp
$Comp
L 74xx:74HC14 U1
U 7 1 63384EB2
P 1800 6800
F 0 "U1" H 2030 6846 50  0000 L CNN
F 1 "74HCT14" H 2030 6755 50  0000 L CNN
F 2 "Package_DIP:DIP-14_W7.62mm_LongPads" H 1800 6800 50  0001 C CNN
F 3 "http://www.ti.com/lit/gpn/sn74HC14" H 1800 6800 50  0001 C CNN
F 4 "296-8394-5-ND" H 1800 6800 50  0001 C CNN "CatNo"
	7    1800 6800
	1    0    0    -1  
$EndComp
$Comp
L Device:R_US R5
U 1 1 6338786E
P 5350 3650
F 0 "R5" H 5100 3700 50  0000 L CNN
F 1 "270" H 5050 3900 50  0000 L CNN
F 2 "Resistor_THT:R_Axial_DIN0204_L3.6mm_D1.6mm_P7.62mm_Horizontal" V 5390 3640 50  0001 C CNN
F 3 "~" H 5350 3650 50  0001 C CNN
F 4 "S270CACT-ND" H 5050 3800 50  0000 C CNN "CatNo"
	1    5350 3650
	1    0    0    -1  
$EndComp
$Comp
L power:+5V #PWR018
U 1 1 63387DA7
P 5350 3300
F 0 "#PWR018" H 5350 3150 50  0001 C CNN
F 1 "+5V" H 5365 3473 50  0000 C CNN
F 2 "" H 5350 3300 50  0001 C CNN
F 3 "" H 5350 3300 50  0001 C CNN
	1    5350 3300
	1    0    0    -1  
$EndComp
Wire Wire Line
	5350 3300 5350 3500
Wire Wire Line
	5350 3800 5350 3950
Wire Wire Line
	5350 3950 4950 3950
Wire Wire Line
	5350 3950 5600 3950
Connection ~ 5350 3950
Wire Wire Line
	4950 4150 5100 4150
Wire Wire Line
	5100 4150 5100 4250
$Comp
L power:Earth #PWR017
U 1 1 6338CBDF
P 5100 4250
F 0 "#PWR017" H 5100 4000 50  0001 C CNN
F 1 "Earth" H 5100 4100 50  0001 C CNN
F 2 "" H 5100 4250 50  0001 C CNN
F 3 "~" H 5100 4250 50  0001 C CNN
	1    5100 4250
	1    0    0    -1  
$EndComp
Wire Wire Line
	6200 3950 6300 3950
Wire Wire Line
	6300 3950 6300 4650
Wire Wire Line
	6300 4650 6550 4650
Connection ~ 6300 3950
Wire Wire Line
	6300 3950 6450 3950
$Comp
L Device:LED D2
U 1 1 63390F32
P 7300 5300
F 0 "D2" V 7384 5182 50  0000 R CNN
F 1 "LED" V 7293 5182 50  0000 R CNN
F 2 "LED_THT:LED_D3.0mm" H 7300 5300 50  0001 C CNN
F 3 "~" H 7300 5300 50  0001 C CNN
F 4 "350-2697-ND" V 7202 5182 50  0000 R CNN "CatNo"
	1    7300 5300
	0    -1   -1   0   
$EndComp
$Comp
L Device:R_US R6
U 1 1 63390F38
P 7300 5000
F 0 "R6" H 7450 5150 50  0000 L CNN
F 1 "2.7k" H 7450 5050 50  0000 L CNN
F 2 "Resistor_THT:R_Axial_DIN0204_L3.6mm_D1.6mm_P7.62mm_Horizontal" V 7340 4990 50  0001 C CNN
F 3 "~" H 7300 5000 50  0001 C CNN
F 4 "S2.7KCACT-ND" H 7700 4950 50  0000 C CNN "CatNo"
	1    7300 5000
	1    0    0    -1  
$EndComp
$Comp
L power:Earth #PWR019
U 1 1 63390F3E
P 7300 5450
F 0 "#PWR019" H 7300 5200 50  0001 C CNN
F 1 "Earth" H 7300 5300 50  0001 C CNN
F 2 "" H 7300 5450 50  0001 C CNN
F 3 "~" H 7300 5450 50  0001 C CNN
	1    7300 5450
	1    0    0    -1  
$EndComp
Wire Wire Line
	7300 4850 7300 4650
Wire Wire Line
	7300 4650 7150 4650
$Comp
L Device:Jumper_NC_Dual JP1
U 1 1 63393BC2
P 6850 3050
F 0 "JP1" H 6600 3400 50  0000 C CNN
F 1 "Jumper_NC_Dual" H 6850 3300 50  0000 C CNN
F 2 "Connector_PinHeader_2.54mm:PinHeader_1x03_P2.54mm_Vertical" H 6850 3050 50  0001 C CNN
F 3 "~" H 6850 3050 50  0001 C CNN
F 4 "2057-PH1-03-UA-ND" H 7000 3200 50  0000 C CNN "CatNo"
	1    6850 3050
	1    0    0    -1  
$EndComp
Wire Wire Line
	6600 3050 6450 3050
Wire Wire Line
	6450 3050 6450 3950
Connection ~ 6450 3950
Wire Wire Line
	6450 3950 6550 3950
Wire Wire Line
	7100 3050 7300 3050
Wire Wire Line
	7300 3050 7300 3950
Wire Wire Line
	7300 3950 7150 3950
Wire Wire Line
	6850 3150 6850 3500
$Comp
L Connector:Conn_Coaxial J3
U 1 1 6339939C
P 8400 3500
F 0 "J3" H 8500 3475 50  0000 L CNN
F 1 "Conn_Coaxial" H 8500 3384 50  0000 L CNN
F 2 "bnc:WM5517-ND" H 8400 3500 50  0001 C CNN
F 3 " ~" H 8400 3500 50  0001 C CNN
F 4 "WM5517-ND" H 8750 3250 50  0000 C CNN "CatNo"
	1    8400 3500
	1    0    0    -1  
$EndComp
Wire Wire Line
	6850 3500 8200 3500
Wire Wire Line
	8400 3950 8400 3700
Text Notes 6400 2550 0    50   ~ 0
Normal out:  Jumper 1-2\nInverted out:  Jumper 2-3
$Comp
L Device:C_Small C1
U 1 1 6339D995
P 2350 6250
F 0 "C1" H 2442 6296 50  0000 L CNN
F 1 "0.1uF" H 2442 6205 50  0000 L CNN
F 2 "Capacitor_THT:C_Disc_D5.0mm_W2.5mm_P5.00mm" H 2350 6250 50  0001 C CNN
F 3 "~" H 2350 6250 50  0001 C CNN
F 4 "399-9877-1-ND" H 2350 6250 50  0001 C CNN "CatNo"
	1    2350 6250
	1    0    0    -1  
$EndComp
$Comp
L power:Earth #PWR03
U 1 1 6339DEB0
P 1800 7300
F 0 "#PWR03" H 1800 7050 50  0001 C CNN
F 1 "Earth" H 1800 7150 50  0001 C CNN
F 2 "" H 1800 7300 50  0001 C CNN
F 3 "~" H 1800 7300 50  0001 C CNN
	1    1800 7300
	1    0    0    -1  
$EndComp
$Comp
L power:Earth #PWR07
U 1 1 6339E82F
P 2350 6350
F 0 "#PWR07" H 2350 6100 50  0001 C CNN
F 1 "Earth" H 2350 6200 50  0001 C CNN
F 2 "" H 2350 6350 50  0001 C CNN
F 3 "~" H 2350 6350 50  0001 C CNN
	1    2350 6350
	1    0    0    -1  
$EndComp
Wire Wire Line
	2350 6150 1800 6150
Wire Wire Line
	1800 6150 1800 6300
$Comp
L power:+5V #PWR02
U 1 1 633A0B87
P 1800 6150
F 0 "#PWR02" H 1800 6000 50  0001 C CNN
F 1 "+5V" H 1815 6323 50  0000 C CNN
F 2 "" H 1800 6150 50  0001 C CNN
F 3 "" H 1800 6150 50  0001 C CNN
	1    1800 6150
	1    0    0    -1  
$EndComp
Connection ~ 1800 6150
$Bitmap
Pos 9950 7100
Scale 1.000000
Data
89 50 4E 47 0D 0A 1A 0A 00 00 00 0D 49 48 44 52 00 00 01 2C 00 00 00 A8 08 03 00 00 00 6D F5 23 
3D 00 00 00 03 73 42 49 54 08 08 08 DB E1 4F E0 00 00 00 90 50 4C 54 45 FF FF FF F0 3C 3C F0 4B 
4B ED 00 00 EE 00 00 FF F5 F5 EF 10 10 F0 31 31 EF 16 16 EF 20 20 F2 66 66 F4 72 72 F4 83 83 F5 
8F 8F F6 9A 9A F8 AA AA F8 B4 B4 F8 BB BB FA C9 C9 FC D2 D2 FC D8 D8 FC DF DF FD E6 E6 FA C8 C8 
F8 AC AC F2 5C 5C EF 2A 2A F5 8B 8B FD E9 E9 FF F9 F9 F4 76 76 F6 9F 9F F0 45 45 F3 6A 6A F9 B9 
B9 F0 2F 2F F7 A4 A4 F6 96 96 F2 5B 5B F1 52 52 F5 89 89 F4 7E 7E F0 3E 3E FE ED ED F0 37 37 F1 
48 48 F4 7A 7A EF 23 23 48 FE 79 4C 00 00 0F 39 49 44 41 54 78 9C ED 9D 7B 7B E2 A0 12 87 A3 44 
AD 97 78 8D 46 EB A5 DA 7A A9 DA B5 DF FF DB 1D 60 20 0C 04 62 D8 EA E9 B3 E7 F0 FB 63 9F 9A 10 
86 BC 01 32 C0 90 8D A2 A0 A0 A0 A0 A0 A0 A0 A0 A0 A0 A0 A0 A0 A0 A0 A0 A0 A0 A0 FF 51 D5 EA 41 
95 54 A3 B0 48 1C 54 49 24 C0 AA AE 00 CB 43 39 2C 12 54 2A 0C 8B 44 8D A0 12 45 4D 5C B3 7E F3 
75 FC 2F C8 80 D5 6C 05 39 D4 2C C0 0A FD BC 53 24 C0 AA AE 00 CB 43 01 96 87 02 2C 0F 05 58 1E 
0A B0 3C 14 60 79 28 C0 F2 50 80 E5 A1 00 CB 43 01 96 87 02 2C 0F 05 58 1E 0A B0 3C 14 60 79 28 
C0 F2 50 45 58 AE B9 FB F2 BC 59 A2 E6 4B 33 BE 93 98 9D 7E 79 29 A6 A2 87 4A 2F 6B 36 5D 46 5F 
DA 77 8D FE 8D 2A C1 EA 74 7B 49 7F 30 1C 8D C6 93 49 3A 9D CE 66 D3 49 36 4F 16 71 59 71 08 79 
5D 66 2B 98 B8 5E 4F 87 1B E7 8D 93 78 39 81 64 E9 DB 2B 21 B5 AD 2A DA 6C B7 28 51 2F 7A 37 F3 
24 A4 95 20 A3 5D 8B D1 AD BC BC 66 2B D0 87 66 E1 E5 2F 60 11 34 61 3F 1B 67 A3 F7 F7 D1 A4 C1 
7E AC F6 2F 0E 04 24 3E B0 32 4F 47 C3 E1 28 5D F3 2B C7 1D 7B 9D ED F3 93 83 FD 70 CA 72 1C 47 
93 3C D9 DD D5 83 B1 9E 23 89 FB CA A8 48 B1 30 8C 92 71 7E F5 D1 72 A7 89 96 FF E9 2F 60 31 D5 
3E E1 96 CF B2 11 BE EE F9 EF 37 5B 72 42 D8 C9 49 47 A6 BD EC F9 C5 2B 1B 2E 86 E8 00 C9 5E 86 
3C 95 4C F4 7A 17 D6 14 E7 47 E2 01 3C 12 DD E8 CC C4 D5 EA BE 8B CB EB 96 E2 B4 2F BB 39 3F 79 
38 BD 16 5A 79 E5 0E 9E 40 D9 7B F9 69 C2 EF 13 55 04 95 B4 43 8F 5F B7 E8 04 21 9F FC EA 49 21 
29 CB E3 24 53 92 CB 3A 52 05 38 D1 F4 5F CA 5C C6 32 E8 AA 4C 77 EB E8 8A 4D EC 18 E8 8B 66 74 
09 B5 AB 60 34 86 07 1F 5D EC 75 7D 67 AF 76 3E 6F 43 92 EA B0 E8 91 2B 3B 52 EC 38 58 05 19 99 
D5 3F 86 8E E9 A4 1D E7 6D 70 8E 0F 35 A0 3C 4C 1B 1D 06 87 B5 41 07 4E B8 AC 0E A3 A9 B5 0A 41 
C1 A9 BE EC 77 4A CF B8 4E 54 85 35 32 61 C5 7F A0 28 46 BA 89 8D 20 3D 0E D5 BB AB 35 1D 76 A4 
86 53 BD E6 3D 05 ED 3F 3E CB 60 B1 5A A9 FE 66 54 86 16 A3 BC 65 47 3B A3 73 93 B0 A2 57 EB 9D 
AE 7E 0E 6B 58 80 45 66 EC 50 A6 57 16 C6 2A B5 56 62 28 38 EE B8 58 7B D5 CB 45 11 9D 21 01 19 
68 67 2C B0 92 9C 33 67 65 E9 10 E8 19 E8 A0 F4 8E 8B C1 1A 01 AD B6 ED 9A E9 53 60 F1 CA D2 28 
1E 72 E4 90 1A 75 1F DE 84 66 81 06 02 D6 E8 AA 65 5C 80 15 6F A3 05 2E 5A A9 D1 96 76 8C C2 12 
C7 D7 16 5F ED 49 B0 E0 4D 8B 0F F1 BA B2 74 E5 C1 93 2B 06 E4 8D 03 D0 53 5F B6 B2 C8 D9 1D 58 
44 94 86 F7 C8 7A C9 90 9A 86 D1 58 C0 E2 EF 16 FA A8 2D 77 FA 5F 82 45 D8 7B 66 ED CC 02 5E 4F 
B9 BB 01 BF 67 8E E4 1B CD CD B1 C0 8A 6F 75 65 B4 E1 34 0A 85 EC 1B 6F 26 12 0B 5A D7 E2 15 CF 
81 C5 7D 2D E4 ED 40 BB EA BB B2 88 09 F7 65 55 49 6A FC E7 A0 CA B8 C4 06 0B 1B 3D B8 8D AE 75 
A3 12 16 EF C8 23 E4 D8 E5 A7 9F 03 2B 35 1A 1D F8 FA E6 28 01 5D 70 D0 9F B2 28 AE 9B 2E BA D4 
0D 8B E7 61 1B 27 8A F3 1C 26 A6 29 60 C5 31 BC 15 CD AA FD 1C 58 35 B3 37 D8 94 35 2B 75 63 EA 
59 76 E0 9D 64 3A 48 B6 2B 5D B0 C8 CD A8 DE 05 BD 98 48 72 58 31 D4 74 E3 E2 67 C0 22 60 0A B9 
2A 70 43 F3 32 58 D0 4F 7C E7 BF C5 1B 5C F3 F7 ED 57 3A 61 8D EF 35 65 61 54 55 78 05 AB 09 4D 
54 77 75 1E 06 2B 1F 1B 12 72 63 86 66 D8 51 81 7A 73 2E 2B 37 8C 28 6F EA 80 18 F1 DE ED B8 DC 
B0 8C 1C 2D 29 C0 1D 56 D7 2A 58 71 1B AC 6B 3E DA C3 60 8D 12 AE C3 9C 8F 5E C6 9A 3F 1E 7F 71 
C3 E6 58 5D 53 97 27 D9 A3 FA 29 E6 67 A2 86 39 E2 35 CC BB 60 5D F8 D5 F5 E2 09 75 29 6F A8 68 
CC 8F 60 C5 2D B0 8E DD 94 87 C1 D2 35 D1 7D 24 DE 65 D9 87 10 52 B5 42 1F 45 06 32 B7 AC 6C B2 
CF 09 0B 48 D8 3C F1 5C 5B 9E 64 68 85 45 A0 44 B8 48 0F 83 75 93 D3 A4 9D 61 A1 3E 88 77 5D 59 
B1 85 5F AA 75 E8 64 91 C3 DF B8 69 B9 60 89 77 9D 97 51 0C 2B 26 80 12 B3 7C 7C 07 4F 62 C0 A5 
FA 73 D1 21 95 3E 64 52 84 45 73 CA F2 CA E5 F6 96 5C B0 A0 62 BA 3D 87 DC E8 BB 1D 16 9F BE D0 
6E E4 29 AE 03 E9 EA 77 2E CA 5D B3 5E AE 95 DB 9C 1F 20 0B 31 C3 14 5D 5D 4E 9A 13 16 3C B2 96 
E5 12 C3 E8 DC 01 2B AF DA B2 53 7B 92 53 DA E3 46 A4 57 0A 43 BD A8 73 BF DC 45 77 5B BC B1 22 
67 97 E7 84 05 D5 F9 78 DF 68 E2 82 25 06 97 79 B1 9E 03 4B BE F8 E5 AF A5 51 28 9B 5C 3C C9 56 
4C 32 AD 1D E6 5D B0 12 ED 81 59 05 63 E9 85 BA C6 80 25 DF 97 62 02 ED 49 B0 E2 23 B7 21 87 2B 
0B 4B 87 64 E8 82 E9 1A 06 C4 DC B8 75 32 CC FD 36 EC 18 1D 92 45 75 C3 68 01 96 6C 23 E0 23 3E 
0B 16 0C 52 F3 DB E3 06 9D E3 7F A6 B2 B1 09 39 43 89 6D 03 C0 92 B1 E1 5D A3 90 2F 1E EF 17 60 
E5 EB 3A EC 7D FC 34 58 DC A5 94 73 32 62 5C F1 A7 A4 DC 73 7B 97 25 CE 42 2D B1 B2 74 7B F0 60 
F4 52 62 74 68 F4 0E 16 58 D2 05 61 13 B9 4F 83 05 63 3B 09 0B 3A 2D CB 5C 78 9E 7E E5 6C 85 FC 
34 3C 5F DB 1B D1 0D 0B AE 29 19 91 C2 94 BB 71 A0 F8 8A 11 CE F1 82 3C 0D 56 86 61 C9 75 51 67 
B1 61 70 51 D2 BF C0 AC BE ED 7D EA 6E 86 77 8D D6 CC 27 68 85 95 0F 51 4E 4F 83 35 D5 DA 8D A8 
CB CE A7 0C AD 50 39 90 3D 13 0B AC 2F 5A 67 AD DC F3 59 E0 3C 38 47 E2 C5 19 7A 3B AC 7C 0A A4 
F5 2C 58 06 1C 31 15 6A 5F 8F 8B A1 12 20 7F 67 52 98 FB E2 2F AE 9D CD BC BB 66 09 A3 1F 65 46 
F1 AA 9A 0B 96 6C 27 EB EB 83 60 19 4E 14 F4 C8 5B 75 00 5C 83 AB 3D 13 9E 05 F2 0C 68 45 33 5D 
50 0E CB E6 97 96 C0 12 EB 97 85 E9 61 71 21 F3 48 F4 65 32 17 2C 35 05 F2 18 58 7B DD 2A 77 4A 
B1 63 24 DC BB B1 F5 C1 B1 41 18 5E 1F A0 8D CE 70 CA F8 E5 56 D4 65 B0 84 CF 61 37 7A 8C 0A 8B 
12 4E 58 6A 7A CD 7E B6 3A 2C EE 33 EA B3 64 B7 62 A3 13 51 0D B6 11 31 9B DE 6D 68 23 DE 4E 61 
3D 7F 5C AC BD E8 8C 03 96 7C 0D DB 8C B2 D9 3D 73 B9 CB 0D 4B 3A 22 3F 86 05 55 14 CD 29 88 21 
95 D9 8D C1 F0 7A 6A 4E 4E 91 6F EA C0 CE F4 63 DF 91 EE 27 40 DD B3 B7 10 7E 17 AE 51 0D 81 A9 
B4 B4 60 F4 75 CD 8A 62 A6 76 34 75 7E 6E F6 00 58 44 BC A1 AF 6D 1E 52 47 FF F9 86 97 47 A1 FC 
E4 03 EC 9D B5 58 37 CE B0 30 DB C0 7B 3C D5 E1 5F 5C 3D 56 2C 1C 04 EB 12 3D BF B4 B5 B2 19 DD 
44 96 77 33 7F 24 EE A5 33 D3 2B D3 8A 7B 3F 98 8D 4F F6 E5 C1 14 93 FE B9 DB 5D CE C5 82 EE C9 
62 54 B4 8A EB A7 88 55 A4 FF 1E 69 67 B0 2A A4 05 77 71 DE 14 13 8A 6C D6 62 5D 7C 93 B2 73 5B 
78 00 D1 3C 76 45 68 0A E7 14 1B 5D 50 A3 33 23 84 86 1E EE F2 31 5A E2 0C F5 6C FC 00 16 39 AC 
1B 91 5D E9 CD D1 4F 92 04 1E 74 3A EF ED 3A DD 64 C4 1A 43 D7 F2 18 D2 88 67 9D EE 97 9F 7B DE 
CC 47 C5 CC 3A EB 86 66 BF D1 70 34 54 92 C0 03 4D 07 CA E8 CE AC CB 93 B5 CA 69 ED 98 6B 6C FC 
A0 66 75 F6 6F 16 1D 7A C7 92 A0 52 42 2E 6F A9 2A 56 DA 6F 59 93 6E 68 23 DE 0D 57 12 C3 D0 96 
EA 32 D0 0D EF F7 D6 70 43 6E 74 AB 1B FD 28 26 5C A2 9B D9 3B E2 23 DA D7 1F F4 59 25 9F 1A 29 
11 8B A5 5C DC 7A BD 73 A7 E5 4E 0C 0D 26 3E DD 68 B2 B6 23 95 8F E5 FB 46 AB 64 E4 2A C8 B3 E3 
E0 AB 06 58 3F 34 10 FB 09 61 DD 3C DB B0 69 A0 BA 02 2C 0F 05 58 1E 0A B0 3C 14 60 79 28 C0 F2 
50 80 E5 A1 00 CB 43 01 96 87 02 2C 0F 05 58 1E 0A B0 3C 14 60 79 28 C0 F2 50 80 E5 A1 00 CB 43 
FF 12 AC F2 09 CE FB 73 A8 55 0F BA B3 A8 00 AB 75 DE 74 99 36 37 15 69 B8 BD C1 31 7E 68 71 63 
67 F5 65 94 05 24 D8 DC FE 40 F2 AE C8 82 FE 38 89 6B 37 9B 33 A4 DD 88 B4 E7 97 B8 76 16 27 73 
89 75 D5 7A A7 7B 5E F6 F7 C3 F7 F7 E1 20 39 16 22 E6 C9 62 74 5D AF 67 C3 23 39 CA 98 87 2F 59 
6C 6E 85 0C B3 5D D7 D4 2E 1B 92 58 24 A3 E9 C4 22 DC 49 16 DD 5C 94 AB 02 EB 98 AE E4 0A 40 7E 
72 33 85 55 92 E9 9E C4 A4 0F CB 62 78 8B 04 E9 A7 7C 49 66 96 DE 20 39 E4 30 65 0B 7F 4B B9 A8 
30 4D 21 6D 26 3E FD 90 7E C7 9D 09 5A 71 00 41 9A D1 8C A7 19 26 87 7D 46 FF 9A E8 FB 31 9A 34 
FF FD 6E D7 67 CB 3B 72 15 62 21 6C CE 78 78 81 0A 63 D0 34 21 44 DE DD 2A 15 DB 17 65 F9 A6 66 
80 5C C5 05 0B B6 26 9F 6A B5 9C B0 75 BA 46 53 2E D1 F1 05 D7 A3 76 9E AD 70 D6 E5 25 B0 46 2B 
7E 12 BE 5E B8 CF F3 A3 7F CC 59 2C AA C8 AB C1 F6 22 EC B8 3A 9F 72 C9 1A D2 B0 50 33 AA D3 D5 
88 6C 58 47 33 58 FA ED E1 BD 9F 3C BC 66 27 6C CE A2 43 87 67 C9 C2 47 7B F0 E7 81 ED 15 23 A4 
CD 70 65 44 5D C7 0A 7B 2E 36 D1 8A 7D 56 3B 2A 6E 60 22 28 2A 41 6C AE D0 5B 22 D1 42 F3 33 BC 
30 CF 42 75 71 60 11 BD C9 FC 24 8B 40 C9 43 44 29 F1 7C D5 95 6D 0D 12 01 5D 0C 83 8A 47 61 61 
18 A2 16 90 05 DE 49 31 8F F2 22 A8 BD D7 6C D9 5B AC 82 93 81 38 BD 8E B4 A5 C2 85 19 83 91 DF 
50 A5 0E 9E 9E EF 9A 97 4E 55 88 1E 85 C5 EB AE F6 59 09 1D D6 08 07 8B B2 AA A5 ED 2D 1A 47 F9 
7A 2D 0B 4E 53 F1 B4 44 6D 9C 22 08 16 8B 75 CA 03 07 88 62 42 51 AB 98 2F 9C 13 C9 A1 6F 23 B5 
2F AA 25 AE AB 47 B8 3C B4 16 5A 43 E3 7E 02 2B 55 A1 FA 14 56 C2 97 CF F1 E2 7B 19 AC 44 7F 94 
D8 AE 01 6B 96 DB 45 B0 F8 DF 39 95 36 CE 8C 4C AC 39 B5 73 03 18 16 11 5B 1F 79 3C 95 7C 7D D1 
6A 6E DF E6 FD 13 58 13 15 87 4F 61 BD C1 06 0B BC 57 D3 0D 8B 67 D8 C7 EC 86 0E 58 F1 47 1E B7 
A3 C1 9A A2 DA C4 32 43 1B E4 94 4D 94 D3 47 62 85 B5 14 FB 58 58 8C 7A 4E C8 F8 54 07 BE A1 87 
C1 82 88 51 15 93 54 06 8B 75 61 B8 FA A0 D0 6C 03 96 56 56 05 6B 82 6A 13 27 67 F9 2A 90 96 53 
7E 1A C3 52 49 59 BB 86 07 46 6B 99 7D DF C2 43 61 41 BC 9B FA AC 44 69 CD 3A A1 7A 1F 5F B4 1D 
CC F8 16 3B C8 AA BB 66 F1 68 CD 62 0C 9C 1D BB 15 16 44 16 F2 C3 5F CE 6D 53 0F 85 05 F1 BE 79 
9C 5D 29 2C DC C5 D3 67 99 D8 61 91 11 8A AE 32 FB 2C D4 23 F3 10 CE D4 FC 9A 97 0F 2C 7E 8B 2C 
31 7D 0C AE 40 FE C7 C2 82 60 46 19 C1 59 0E 0B 75 F1 44 0F E9 E7 B7 28 B4 1E 58 61 F1 A0 43 E4 
33 8A 7D 3F 46 84 9A 17 2C 1E 98 BA E7 DE 61 F1 64 5E 80 47 C2 82 BE 44 C4 0D 97 C2 C2 5D FC 46 
77 23 58 5C FB 78 C2 D5 D0 B6 53 EB 7E 96 1E AD 0D A1 AC 2B ED E3 74 7E 35 8B 07 DF D6 68 4F EF 
DC 11 FF 68 58 60 12 7A A0 72 58 AA 8B C7 19 89 5B 54 32 60 81 07 BF BD 46 6B F3 33 4F 22 38 33 
31 B0 57 87 C5 3D 90 69 BF E4 13 11 0F 87 05 5D 2F 37 78 A7 66 9D 64 45 69 1B 1F 4A 42 CD B0 66 
C2 9A 2F 93 C3 70 C6 2A 6F B1 3B 87 E0 4C BC 33 DC 0F 96 18 86 B8 B7 4C 3D 1E 16 C4 FB B2 97 EF 
1D 58 44 0C F0 A8 7F F6 56 84 25 6D 18 1D 7C 36 1A 0D 13 F6 38 2C 2E 36 69 F2 51 84 D3 63 13 72 
C2 82 92 97 6D D3 AA 0E CB FC CE 04 AD 42 D8 83 47 37 CC 86 C9 D4 8F BE 07 8B 75 F1 4D DE FF 68 
DB C0 34 58 6F D6 66 08 03 64 CB DD F0 BA A1 1E A1 27 2C 5E D9 4B 3E 4B 51 11 16 29 BE 6A 58 CD 
C8 F7 8E EB B0 78 BC 2F 1D C5 97 C3 92 8E F7 D1 DC 2C A2 B9 92 B8 0B CA 3B F8 0F 63 AC A0 92 74 
23 34 C2 F6 86 C5 86 EA 25 BB AD AB C2 BA 5A F6 2F E0 F1 9C 0E 8B 7F E2 65 74 0F 16 3B D4 60 B3 
3B 7A 03 AF E0 C1 F3 F8 76 14 B3 8C FE 1A 22 67 F5 B7 60 BD 47 A6 FB 41 FB D3 89 0B 16 7C E2 65 
DF B8 53 B3 78 17 4F 4C 93 E6 2D BE 26 AA AC B9 EB C0 46 56 F9 8C D6 09 7D 53 0A 0F AA 7F 09 16 
DF 78 A5 6F 55 A0 0E 89 9A 91 32 61 C9 2F B2 96 C3 62 FB 5A B3 9B B9 05 C2 B8 45 D2 C7 5B B0 73 
0F 3E 45 1D C3 05 DB F9 FD 9A 05 AE 39 FE FA 09 7D 17 E2 71 B1 09 4B 7C C4 E7 0E 2C D6 C5 4F CD 
DD 89 26 AC AB DC F9 DA 8C F0 26 57 D6 2F CA 19 3A D4 9F 7E A0 3D 2B 2C A7 E2 06 83 E7 C3 82 C2 
0D 63 39 2F CC B6 87 A0 0D 5E A4 6F BE 72 E1 13 2F E8 9E 33 DB 8E C0 28 B2 20 C4 DD 0E DB 79 26 
1B 59 4B 7B 5E 6C 93 54 F4 0D C5 69 44 D2 73 67 FD 45 1D E7 54 9C 99 2A 79 E5 5D A2 D2 6F 78 54 
87 D5 E4 7B 3D B2 64 77 3A 6E F6 D4 D3 B9 7E AB 4C 08 F5 50 1A C6 42 14 DF 4E A4 EE 99 7F D4 E0 
CB 70 25 F9 C0 5B FF 08 89 70 0C F6 27 50 67 2E 3F B6 40 F8 7C 59 A6 AC B0 6A B0 E6 90 58 9B EC 
C0 1C 7C 1F BD B5 61 AA FF 48 8C FC E7 BC 47 B1 38 B5 70 6A 54 B2 97 A0 FA BA A1 F8 7A 8A 10 F6 
7F DE E0 53 D8 93 4C FF FE E3 42 65 B6 93 5F 31 37 5E A9 75 E3 BD F1 32 1E 15 57 61 16 DC 46 26 
3E FE 98 65 D2 67 68 B3 23 D9 ED 15 98 CF 0E BB EE DB 15 2D 15 1C A5 4D B4 B4 D1 CB 32 18 15 AD 
B2 EC D3 B8 BD A1 F8 38 7A 23 DB 3B 18 F8 2C B2 12 72 E3 0B 52 EB D9 E8 A6 2D DC 75 97 3D A6 CF 
44 FF 66 0F D9 E5 BD C7 29 E9 89 24 46 D5 5A E9 7B 59 9B C9 F2 B3 67 E8 B3 0D 36 C4 89 65 A2 A6 
4E 8F 83 F1 74 45 5B E9 B1 1E 6F DE 59 35 4A 13 55 B0 4B 6E 53 E5 BF 90 F9 7F 2E 13 3C 1E 65 EA 
2D 85 C1 A5 63 0B A8 EF 8A B4 63 4D D8 B5 52 4C 0A 29 CC 24 E6 11 F7 1E 21 EB 7A 74 F1 FC 9D C2 
96 ED DB B9 B7 A3 E7 9F 5A BE FF 75 05 58 1E 0A B0 3C 14 60 79 28 C0 F2 50 80 E5 A1 00 CB 43 01 
96 87 02 2C 0F 05 58 1E 0A B0 3C 14 60 79 28 C0 F2 50 80 E5 A1 00 CB 43 01 96 87 02 2C 0F 05 58 
1E 2A C2 AA 97 FD 3F A8 FF DF AA 17 60 05 95 49 83 75 9D 05 95 E8 AA C1 B2 AD AE 04 29 C5 18 56 
D0 7D 05 58 1E 0A B0 3C C4 60 1D 3B 41 95 74 FC CD D7 71 50 50 50 50 50 50 50 50 50 50 50 50 50 
50 50 50 50 50 D0 33 F5 1F 92 C5 FD 1B 9F 2D 76 D4 00 00 00 00 49 45 4E 44 AE 42 60 82 
EndData
$EndBitmap
Text Notes 6450 7150 0    125  ~ 0
ELECTRONICS DESIGN FACILITY
Text Notes 6850 7750 0    100  ~ 0
Opto-Isolator with Current input
Text Notes 3550 7450 0    100  ~ 0
2022-09-29  Rev A   E. Hazen
$Comp
L Mechanical:MountingHole H1
U 1 1 63360EE4
P 6650 6100
F 0 "H1" H 6750 6146 50  0000 L CNN
F 1 "Hole" H 6750 6055 50  0000 L CNN
F 2 "MountingHole:MountingHole_4.3mm_M4" H 6650 6100 50  0001 C CNN
F 3 "~" H 6650 6100 50  0001 C CNN
	1    6650 6100
	1    0    0    -1  
$EndComp
$Comp
L Mechanical:MountingHole H2
U 1 1 63361165
P 7050 6100
F 0 "H2" H 7150 6146 50  0000 L CNN
F 1 "Hole" H 7150 6055 50  0000 L CNN
F 2 "MountingHole:MountingHole_4.3mm_M4" H 7050 6100 50  0001 C CNN
F 3 "~" H 7050 6100 50  0001 C CNN
	1    7050 6100
	1    0    0    -1  
$EndComp
$Comp
L Mechanical:MountingHole H3
U 1 1 63361477
P 7450 6100
F 0 "H3" H 7550 6146 50  0000 L CNN
F 1 "Hole" H 7550 6055 50  0000 L CNN
F 2 "MountingHole:MountingHole_4.3mm_M4" H 7450 6100 50  0001 C CNN
F 3 "~" H 7450 6100 50  0001 C CNN
	1    7450 6100
	1    0    0    -1  
$EndComp
$Comp
L Mechanical:MountingHole H4
U 1 1 6336176A
P 7850 6100
F 0 "H4" H 7950 6146 50  0000 L CNN
F 1 "Hole" H 7950 6055 50  0000 L CNN
F 2 "MountingHole:MountingHole_4.3mm_M4" H 7850 6100 50  0001 C CNN
F 3 "~" H 7850 6100 50  0001 C CNN
	1    7850 6100
	1    0    0    -1  
$EndComp
$Comp
L power:Earth #PWR020
U 1 1 6339B0EE
P 8400 3950
F 0 "#PWR020" H 8400 3700 50  0001 C CNN
F 1 "Earth" H 8400 3800 50  0001 C CNN
F 2 "" H 8400 3950 50  0001 C CNN
F 3 "~" H 8400 3950 50  0001 C CNN
	1    8400 3950
	1    0    0    -1  
$EndComp
Wire Wire Line
	1600 4050 1600 4450
$Comp
L Connector:Conn_01x01_Female J1
U 1 1 6336FB61
P 1250 4050
F 0 "J1" H 1800 4050 50  0000 C CNN
F 1 "TipJack-red" H 1500 4050 50  0000 C CNN
F 2 "tip-jack:tip-jack-105-0803-b" H 1250 4050 50  0001 C CNN
F 3 "~" H 1250 4050 50  0001 C CNN
F 4 "J106-ND" H 1500 3950 50  0000 C CNN "CatNo"
	1    1250 4050
	-1   0    0    -1  
$EndComp
$Comp
L Connector:Conn_01x01_Female J4
U 1 1 6337041D
P 1250 4250
F 0 "J4" H 1800 4250 50  0000 C CNN
F 1 "TipJack-black" H 1450 4250 50  0000 C CNN
F 2 "tip-jack:tip-jack-105-0803-b" H 1250 4250 50  0001 C CNN
F 3 "~" H 1250 4250 50  0001 C CNN
F 4 "J118-ND" H 1500 4150 50  0000 C CNN "CatNo"
	1    1250 4250
	-1   0    0    -1  
$EndComp
$Comp
L Mechanical:Housing N1
U 1 1 63370C63
P 3850 6000
F 0 "N1" H 4000 6000 50  0000 L CNN
F 1 "Hammond 1591DSBK" H 4000 5925 50  0000 L CNN
F 2 "" H 3900 6050 50  0001 C CNN
F 3 "~" H 3900 6050 50  0001 C CNN
F 4 "HM105-ND" H 4200 5800 50  0000 C CNN "CatNo"
	1    3850 6000
	1    0    0    -1  
$EndComp
$Comp
L Mechanical:Housing N2
U 1 1 634EC223
P 3850 6700
F 0 "N2" H 4000 6700 50  0000 L CNN
F 1 "DC/DC ME10A0503F01" H 4000 6625 50  0000 L CNN
F 2 "" H 3900 6750 50  0001 C CNN
F 3 "~" H 3900 6750 50  0001 C CNN
F 4 "271-2861-ND" H 4300 6550 50  0000 C CNN "CatNo"
	1    3850 6700
	1    0    0    -1  
$EndComp
Text Notes 4100 5950 0    100  ~ 0
Plastic enclosure
Text Notes 4150 6700 0    100  ~ 0
AC/DC "Brick"
$EndSCHEMATC
